\relax 
\providecommand\hyper@newdestlabel[2]{}
\providecommand\HyperFirstAtBeginDocument{\AtBeginDocument}
\HyperFirstAtBeginDocument{\ifx\hyper@anchor\@undefined
\global\let\oldcontentsline\contentsline
\gdef\contentsline#1#2#3#4{\oldcontentsline{#1}{#2}{#3}}
\global\let\oldnewlabel\newlabel
\gdef\newlabel#1#2{\newlabelxx{#1}#2}
\gdef\newlabelxx#1#2#3#4#5#6{\oldnewlabel{#1}{{#2}{#3}}}
\AtEndDocument{\ifx\hyper@anchor\@undefined
\let\contentsline\oldcontentsline
\let\newlabel\oldnewlabel
\fi}
\fi}
\global\let\hyper@last\relax 
\gdef\HyperFirstAtBeginDocument#1{#1}
\providecommand\HyField@AuxAddToFields[1]{}
\providecommand\HyField@AuxAddToCoFields[2]{}
\@writefile{toc}{\contentsline {section}{\numberline {1}Purpose}{1}{section.1}\protected@file@percent }
\@writefile{toc}{\contentsline {section}{\numberline {2}Thanks}{1}{section.2}\protected@file@percent }
\@writefile{toc}{\contentsline {section}{\numberline {3}Installation}{1}{section.3}\protected@file@percent }
\@writefile{toc}{\contentsline {section}{\numberline {4}Common Remarks}{2}{section.4}\protected@file@percent }
\@writefile{toc}{\contentsline {subsection}{\numberline {4.1}Parameter \texttt  {\leavevmode {\color  {red}channel}}}{2}{subsection.4.1}\protected@file@percent }
\newlabel{sec:pa-ch}{{4.1}{2}{Parameter \prm {channel}}{subsection.4.1}{}}
\newlabel{sec:pa-ch@cref}{{[subsection][1][4]4.1}{[1][1][]2}}
\@writefile{toc}{\contentsline {subsection}{\numberline {4.2}Parameter \texttt  {\leavevmode {\color  {magenta}show\_and\_wait}}}{2}{subsection.4.2}\protected@file@percent }
\newlabel{sec:pa-sh-an-wa}{{4.2}{2}{Parameter \oprmv {show\_and\_wait}}{subsection.4.2}{}}
\newlabel{sec:pa-sh-an-wa@cref}{{[subsection][2][4]4.2}{[1][2][]2}}
\@writefile{toc}{\contentsline {section}{\numberline {5}Main Base Classes}{2}{section.5}\protected@file@percent }
\@writefile{toc}{\contentsline {subsection}{\numberline {5.1}Class \texttt  {sequence\_t}}{2}{subsection.5.1}\protected@file@percent }
\newlabel{sec:cl-se}{{5.1}{2}{Class \texttt {sequence\_t}}{subsection.5.1}{}}
\newlabel{sec:cl-se@cref}{{[subsection][1][5]5.1}{[1][2][]2}}
\@writefile{toc}{\contentsline {subsection}{\numberline {5.2}Sequence How To's}{2}{subsection.5.2}\protected@file@percent }
\@writefile{toc}{\contentsline {paragraph}{Load a sequence:}{2}{section*.1}\protected@file@percent }
\@writefile{toc}{\contentsline {paragraph}{Check a loaded sequence:}{2}{section*.2}\protected@file@percent }
\@writefile{toc}{\contentsline {subsection}{\numberline {5.3}Class \texttt  {cell\_t}}{3}{subsection.5.3}\protected@file@percent }
\newlabel{sec:cl-ce}{{5.3}{3}{Class \texttt {cell\_t}}{subsection.5.3}{}}
\newlabel{sec:cl-ce@cref}{{[subsection][3][5]5.3}{[1][3][]3}}
\@writefile{toc}{\contentsline {subsection}{\numberline {5.4}Cell How To's}{3}{subsection.5.4}\protected@file@percent }
\@writefile{toc}{\contentsline {section}{\numberline {6}Additional Base Classes}{3}{section.6}\protected@file@percent }
\newlabel{LastPage}{{}{3}{}{page.3}{}}
\xdef\lastpage@lastpage{3}
\xdef\lastpage@lastpageHy{3}
\gdef \@abspage@last{3}
