\relax 
\providecommand\hyper@newdestlabel[2]{}
\providecommand\HyperFirstAtBeginDocument{\AtBeginDocument}
\HyperFirstAtBeginDocument{\ifx\hyper@anchor\@undefined
\global\let\oldcontentsline\contentsline
\gdef\contentsline#1#2#3#4{\oldcontentsline{#1}{#2}{#3}}
\global\let\oldnewlabel\newlabel
\gdef\newlabel#1#2{\newlabelxx{#1}#2}
\gdef\newlabelxx#1#2#3#4#5#6{\oldnewlabel{#1}{{#2}{#3}}}
\AtEndDocument{\ifx\hyper@anchor\@undefined
\let\contentsline\oldcontentsline
\let\newlabel\oldnewlabel
\fi}
\fi}
\global\let\hyper@last\relax 
\gdef\HyperFirstAtBeginDocument#1{#1}
\ifx\rEfLiNK\UnDef\gdef \rEfLiNK#1#2{#2}\fi
\newlabel{sec:pa-ch}{{\rEfLiNK{x1-50004.1}{\csname :autoref\endcsname{subsection}4.1}}{\rEfLiNK{x1-50004.1}{\csname :autoref\endcsname{subsection}4}}{\rEfLiNK{x1-50004.1}{\csname :autoref\endcsname{subsection}Parameter \texttt  {\leavevmode {\a:textcolor \color  {red}channel\b:textcolor }}}}{subsection.1}{}}
\newlabel{sec:pa-ch@cref}{{[subsection][1][4]4.1}{[1][4][]4}}
\newlabel{sec:pa-sh-an-wa}{{\rEfLiNK{x1-60004.2}{\csname :autoref\endcsname{subsection}4.2}}{\rEfLiNK{x1-60004.2}{\csname :autoref\endcsname{subsection}4}}{\rEfLiNK{x1-60004.2}{\csname :autoref\endcsname{subsection}Parameter \texttt  {\leavevmode {\a:textcolor \color  {magenta}show\_and\_wait\b:textcolor }}}}{subsection.1}{}}
\newlabel{sec:pa-sh-an-wa@cref}{{[subsection][2][4]4.2}{[1][4][]4}}
\newlabel{sec:cl-se}{{\rEfLiNK{x1-80005.1}{\csname :autoref\endcsname{subsection}5.1}}{\rEfLiNK{x1-80005.1}{\csname :autoref\endcsname{subsection}5}}{\rEfLiNK{x1-80005.1}{\csname :autoref\endcsname{subsection}Class \texttt  {sequence\_t}}}{subsection.1}{}}
\newlabel{sec:cl-se@cref}{{[subsection][1][5]5.1}{[1][5][]5}}
\newlabel{sec:cl-ce}{{\rEfLiNK{x1-120005.3}{\csname :autoref\endcsname{subsection}5.3}}{\rEfLiNK{x1-120005.3}{\csname :autoref\endcsname{subsection}6}}{\rEfLiNK{x1-120005.3}{\csname :autoref\endcsname{subsection}Class \texttt  {cell\_t}}}{subsection.1}{}}
\newlabel{sec:cl-ce@cref}{{[subsection][3][5]5.3}{[1][6][]6}}
\newlabel{LastPage}{{}{6}{}{page.6}{}}
\xdef\lastpage@lastpage{6}
\xdef\lastpage@lastpageHy{6}
\gdef \@abspage@last{7}
